 Norm of search step   0.20000000000000004     
 Norm of search step   0.39999999999999997     
 Norm of search step   0.52838242514589617     
 Norm of search step   0.64734757843064950     
 Norm of search step   0.20000000000000001     
 Norm of search step   0.19999999999999982     
 Norm of search step    4.9999999999999968E-002
 Norm of search step   0.10000000000000001     
 Norm of search step    2.4999999999999970E-002
 Norm of search step    6.2499999999999709E-003
 Norm of search step    1.5624999999999888E-003
 Norm of search step    3.9062500000002686E-004
 Norm of search step    9.7656249999973104E-005
 Norm of search step    2.4414062499941854E-005
 Norm of search step    6.1035156249894150E-006
 Norm of search step    1.5258789062176930E-006
 Norm of search step    3.8146972661374472E-007
 Norm of search step    9.5367431627726546E-008
 Norm of search step    2.3841857899029435E-008
 Norm of search step    5.9604643936773706E-009
Number of SNES iterations = 5
